{
    "name": "OptHistoryView_options",
    "required": [],
    "properties": {
        "n_x": {
            "type": "integer",
            "min":2
        },
        "n_y": {
            "type": "integer",
            "min":2
        },
        "annotate": {
            "type": "boolean"
        }
    },
    "additionalProperties": false,
    "$schema": "http://json-schema.org/draft-04/schema",
    "type": "object"
}
